IS415-GAA - In-class Exercise 9: Geographically Weighted Random Forest
…
# A tibble: 1 × 3
  .metric .estimator .estimate
  <chr>   <chr>          <dbl>
1 rmse    standard      61617.

Show the code

mc <- test_pred %>% 
  pivot_longer(cols = c(2:4),
               names_to = "models",
               values_to = "predicted")
mc

# A tibble: 23,853 × 3
   RESALE_PRICE models   predicted
          <dbl> <chr>        <dbl>
 1       360000 grf_pred   383674.
 2       360000 rf_pred    384601.
 3       360000 mlr_pred   384990.
 4       370000 grf_pred   353244.
 5       370000 rf_pred    358746.
 6       370000 mlr_pred   387328.
 7       375000 grf_pred   406702.
 8       375000 rf_pred    407256.
 9       375000 mlr_pred   379705.
10       380000 grf_pred   375354.
# ℹ 23,843 more rows
