IS415-GAA - Take-home Exercise 2: Application of Spatial and Spatio-temporal Analysis Methods to Discover the Distribution of Dengue Fever in Tainan City, Taiwan - Part 2
…
Show the code

dengue_grp <- dengue %>%
  group_by(感染村里, 周) %>%
  summarise(num_dengue_cases=n()) %>%
  st_drop_geometry()

`summarise()` has grouped output by '感染村里'. You can override using the
`.groups` argument.

Show the code

dengue_grp

# A tibble: 1,264 × 3
# Groups:   感染村里 [345]
   感染村里    周 num_dengue_cases
 * <chr>    <dbl>            <int>
 1 None        32              362
 2 None        33              419
 3 None        34              727
 4 None        35             1141
 5 None        36             1824
 6 None        37             1892
 7 None        38             1783
 8 None        39             2222
 9 None        40             1757
10 None        41             1393
# ℹ 1,254 more rows
…
